…
data("darwin")
data <- darwin
data <- as_tibble(data)
data

## # A tibble: 30 x 4
##    pot   pair  type  height
##  * <fct> <fct> <fct>  <dbl>
##  1 I     1     Cross   23.5
##  2 I     1     Self    17.4
##  3 I     2     Cross   12  
##  4 I     2     Self    20.4
##  5 I     3     Cross   21  
##  6 I     3     Self    20  
##  7 II    4     Cross   22  
##  8 II    4     Self    20  
##  9 II    5     Cross   19.1
## 10 II    5     Self    18.4
## # ... with 20 more rows
…
Case study #4.

library(tidyverse)
data <- read_csv("data/5081.survey.2.csv")
data

## # A tibble: 21 x 4
##    r.experience discipline            research.data r.studio
##           <int> <chr>                 <chr>         <chr>   
##  1            1 physiology            quantitative  No      
##  2            1 physiology            quantitative  Yes     
##  3           NA ecology               quantitative  Yes     
##  4            2 ecology               quantitative  No      
##  5            2 ecology               quantitative  No      
##  6            2 physiology            qualitative   No      
##  7            1 genetics              quantitative  No      
##  8            1 environmental science quantitative  No      
##  9            2 genetics              qualitative   Yes     
## 10            2 ecology               quantitative  Yes     
## # ... with 11 more rows
…
